<?xml version="1.0" encoding="UTF-8" standalone="no"?>
<!-- Created with Inkscape (http://www.inkscape.org/) -->

<svg
   xmlns:dc="http://purl.org/dc/elements/1.1/"
   xmlns:cc="http://creativecommons.org/ns#"
   xmlns:rdf="http://www.w3.org/1999/02/22-rdf-syntax-ns#"
   xmlns:svg="http://www.w3.org/2000/svg"
   xmlns="http://www.w3.org/2000/svg"
   xmlns:sodipodi="http://sodipodi.sourceforge.net/DTD/sodipodi-0.dtd"
   xmlns:inkscape="http://www.inkscape.org/namespaces/inkscape"
   width="292.67859mm"
   height="292.67859mm"
   viewBox="0 0 292.67859 292.67859"
   version="1.1"
   id="svg1804"
   inkscape:version="0.92.2 5c3e80d, 2017-08-06"
   sodipodi:docname="fscilogo.svg">
  <defs
     id="defs1798" />
  <sodipodi:namedview
     id="base"
     pagecolor="#ffffff"
     bordercolor="#666666"
     borderopacity="1.0"
     inkscape:pageopacity="0.0"
     inkscape:pageshadow="2"
     inkscape:zoom="0.18696289"
     inkscape:cx="330.5767"
     inkscape:cy="850.23191"
     inkscape:document-units="mm"
     inkscape:current-layer="layer1"
     showgrid="false"
     inkscape:window-width="1362"
     inkscape:window-height="729"
     inkscape:window-x="0"
     inkscape:window-y="18"
     inkscape:window-maximized="0" />
  <metadata
     id="metadata1801">
    <rdf:RDF>
      <cc:Work
         rdf:about="">
        <dc:format>image/svg+xml</dc:format>
        <dc:type
           rdf:resource="http://purl.org/dc/dcmitype/StillImage" />
        <dc:title></dc:title>
      </cc:Work>
    </rdf:RDF>
  </metadata>
  <g
     inkscape:label="Layer 1"
     inkscape:groupmode="layer"
     id="layer1"
     transform="translate(94.685774,-25.064816)">
    <rect
       style="fill:#000000;fill-opacity:1;stroke:#552200;stroke-width:0.2295182;stroke-linecap:butt;stroke-linejoin:miter;stroke-miterlimit:4;stroke-dasharray:none;stroke-opacity:1"
       id="rect5175-1-73"
       width="292.44907"
       height="292.44907"
       x="-94.571014"
       y="25.179575"
       inkscape:export-xdpi="300.04999"
       inkscape:export-ydpi="300.04999" />
    <path
       style="fill:#ffffff;fill-opacity:1;stroke:none;stroke-width:0.19271298px;stroke-linecap:butt;stroke-linejoin:miter;stroke-opacity:1"
       d="m -2.8067508,46.28068 c 10.3243,0.783 32.0618998,-3.7186 43.8090998,5.4878 9.6313,7.5482 20.9522,29.8821 34.293,25.961401 8.7564,-2.573502 13.3259,-13.433301 22.6227,-15.619101 4.736101,-1.113599 9.970801,1.962301 14.184101,3.7992 -21.579301,13.5767 -21.657901,62.98361 -52.842501,73.4903 -20.409,6.876 -39.498,6.0296 -56.3691978,23.87951 1.801098,-18.3769 81.4724978,-62.73961 -5.697202,-116.99911 z"
       id="path4525-6-73-3-53-6-2-65"
       inkscape:connector-curvature="0"
       sodipodi:nodetypes="ccsccscc"
       inkscape:export-xdpi="300.04999"
       inkscape:export-ydpi="300.04999" />
    <path
       style="fill:#ffffff;fill-opacity:1;stroke:none;stroke-width:0.40613118;stroke-linecap:butt;stroke-linejoin:miter;stroke-miterlimit:4;stroke-dasharray:none;stroke-opacity:1"
       d="m -19.85205,78.20448 -38.4263,38.5011 v 26.46041 l 38.4263,38.5024 v -26.4604 l -25.222502,-25.27151 25.222502,-25.2716 z"
       id="rect4557-7-93-0-6-1-7-6-3-6"
       inkscape:connector-curvature="0"
       inkscape:export-xdpi="300.04999"
       inkscape:export-ydpi="300.04999" />
    <path
       style="fill:#ffffff;fill-opacity:1;stroke:none;stroke-width:0.40613118;stroke-linecap:butt;stroke-linejoin:miter;stroke-miterlimit:4;stroke-dasharray:none;stroke-opacity:1"
       d="m 123.29545,78.204382 v 26.459098 l 25.2225,25.2716 -25.2225,25.27291 v 26.4604 l 38.4262,-38.5024 v -26.46041 z"
       id="rect4557-7-9-6-2-1-9-3-9-5-39"
       inkscape:connector-curvature="0"
       inkscape:export-xdpi="300.04999"
       inkscape:export-ydpi="300.04999" />
    <flowRoot
       transform="matrix(2.180669,0,0,2.2629176,1921.2691,-731.65373)"
       xml:space="preserve"
       id="flowRoot6183-3-2-7-7-4"
       style="font-style:normal;font-variant:normal;font-weight:bold;font-stretch:normal;font-size:56.00000381px;line-height:25px;font-family:'URW Bookman';-inkscape-font-specification:'URW Bookman Bold';letter-spacing:0px;word-spacing:0px;fill:#ffffff;fill-opacity:1;stroke:none"
       inkscape:export-xdpi="300.04999"
       inkscape:export-ydpi="300.04999"><flowRegion
         id="flowRegion6185-6-8-1-0-8"
         style="font-style:normal;font-variant:normal;font-weight:bold;font-stretch:normal;font-size:56.00000381px;font-family:'URW Bookman';-inkscape-font-specification:'URW Bookman Bold';fill:#ffffff;stroke:none"><rect
           id="rect6187-1-3-9-2-1"
           width="1034.2858"
           height="725.71429"
           x="-908.57141"
           y="428.23398"
           style="font-style:normal;font-variant:normal;font-weight:bold;font-stretch:normal;font-size:56.00000381px;font-family:'URW Bookman';-inkscape-font-specification:'URW Bookman Bold';fill:#ffffff;stroke:none" /></flowRegion><flowPara
         id="flowPara6189-0-0-3-6-2">fsci</flowPara></flowRoot>  </g>
</svg>
