<?xml version="1.0" encoding="UTF-8" standalone="no"?>
<!-- Created with Inkscape (http://www.inkscape.org/) -->

<svg
   xmlns:dc="http://purl.org/dc/elements/1.1/"
   xmlns:cc="http://creativecommons.org/ns#"
   xmlns:rdf="http://www.w3.org/1999/02/22-rdf-syntax-ns#"
   xmlns:svg="http://www.w3.org/2000/svg"
   xmlns="http://www.w3.org/2000/svg"
   xmlns:sodipodi="http://sodipodi.sourceforge.net/DTD/sodipodi-0.dtd"
   xmlns:inkscape="http://www.inkscape.org/namespaces/inkscape"
   width="191.61595mm"
   height="229.50809mm"
   viewBox="0 0 191.61595 229.50809"
   version="1.1"
   id="svg993"
   inkscape:version="0.92.2 5c3e80d, 2017-08-06"
   sodipodi:docname="fsugtcr.svg">
  <defs
     id="defs987" />
  <sodipodi:namedview
     id="base"
     pagecolor="#ffffff"
     bordercolor="#666666"
     borderopacity="1.0"
     inkscape:pageopacity="0.0"
     inkscape:pageshadow="2"
     inkscape:zoom="0.26440546"
     inkscape:cx="-165.29846"
     inkscape:cy="360.96298"
     inkscape:document-units="mm"
     inkscape:current-layer="layer1"
     showgrid="false"
     inkscape:window-width="1362"
     inkscape:window-height="729"
     inkscape:window-x="0"
     inkscape:window-y="18"
     inkscape:window-maximized="0" />
  <metadata
     id="metadata990">
    <rdf:RDF>
      <cc:Work
         rdf:about="">
        <dc:format>image/svg+xml</dc:format>
        <dc:type
           rdf:resource="http://purl.org/dc/dcmitype/StillImage" />
        <dc:title></dc:title>
      </cc:Work>
    </rdf:RDF>
  </metadata>
  <g
     inkscape:label="Layer 1"
     inkscape:groupmode="layer"
     id="layer1"
     transform="translate(9.4829161,-30.11572)">
    <rect
       style="opacity:1;fill:#ffffff;fill-opacity:0.99215686;fill-rule:nonzero;stroke:#000000;stroke-width:1.70453489;stroke-linejoin:round;stroke-miterlimit:4;stroke-dasharray:none;stroke-opacity:1"
       id="rect4462-9"
       width="189.91142"
       height="227.80356"
       x="-8.6306486"
       y="30.967987"
       inkscape:export-xdpi="100"
       inkscape:export-ydpi="100"
       inkscape:export-filename="/home/user01/fsugtcr.png" />
    <flowRoot
       xml:space="preserve"
       id="flowRoot4594-34-3-6"
       style="font-style:normal;font-variant:normal;font-weight:bold;font-stretch:normal;font-size:40px;line-height:1.25;font-family:'URW Gothic';-inkscape-font-specification:'URW Gothic Bold';letter-spacing:0px;word-spacing:0px;fill:#000000;fill-opacity:1;stroke:none"
       transform="matrix(0.47660274,0,0,0.50345729,-3121.991,-2930.462)"
       inkscape:export-xdpi="100"
       inkscape:export-ydpi="100"
       inkscape:export-filename="/home/user01/fsugtcr.png"><flowRegion
         id="flowRegion4596-6-6-2"
         style="font-style:normal;font-variant:normal;font-weight:bold;font-stretch:normal;font-family:'URW Gothic';-inkscape-font-specification:'URW Gothic Bold'"><rect
           id="rect4598-3-7-6"
           width="1418.75"
           height="943.75"
           x="6581.25"
           y="6153.7695"
           style="font-style:normal;font-variant:normal;font-weight:bold;font-stretch:normal;font-family:'URW Gothic';-inkscape-font-specification:'URW Gothic Bold'" /></flowRegion><flowPara
         id="flowPara4610-6-5-1"
         style="font-style:normal;font-variant:normal;font-weight:bold;font-stretch:normal;font-family:'URW Gothic';-inkscape-font-specification:'URW Gothic Bold';letter-spacing:4.26949835px">FreeSoftware</flowPara></flowRoot>    <flowRoot
       transform="matrix(0.56256685,0,0,0.56256685,-3687.5148,-3278.7574)"
       xml:space="preserve"
       id="flowRoot4594-3-3-3-8"
       style="font-style:normal;font-variant:normal;font-weight:normal;font-stretch:normal;font-size:40px;line-height:1.25;font-family:'URW Gothic';-inkscape-font-specification:'URW Gothic';letter-spacing:6.75000572px;word-spacing:0px;fill:#000000;fill-opacity:1;stroke:none"
       inkscape:export-xdpi="100"
       inkscape:export-ydpi="100"
       inkscape:export-filename="/home/user01/fsugtcr.png"><flowRegion
         id="flowRegion4596-8-3-5-7"
         style="font-style:normal;font-variant:normal;font-weight:normal;font-stretch:normal;line-height:1.25;font-family:'URW Gothic';-inkscape-font-specification:'URW Gothic';letter-spacing:6.75000572px"><rect
           id="rect4598-5-4-6-9"
           width="1418.75"
           height="943.75"
           x="6581.25"
           y="6153.7695"
           style="font-style:normal;font-variant:normal;font-weight:normal;font-stretch:normal;line-height:1.25;font-family:'URW Gothic';-inkscape-font-specification:'URW Gothic';letter-spacing:6.75000572px" /></flowRegion><flowPara
         id="flowPara4610-2-4-2-2"
         style="font-style:normal;font-variant:normal;font-weight:normal;font-stretch:normal;font-family:'URW Gothic';-inkscape-font-specification:'URW Gothic';letter-spacing:2.99000001px"><flowSpan
   style="font-style:normal;font-variant:normal;font-weight:normal;font-stretch:normal;font-family:'URW Gothic';-inkscape-font-specification:'URW Gothic'"
   id="flowSpan5615">users</flowSpan> group</flowPara></flowRoot>    <flowRoot
       transform="matrix(0.84083996,0,0,0.84083996,-5518.1656,-4969.4057)"
       xml:space="preserve"
       id="flowRoot4594-2-3-9-0"
       style="font-style:normal;font-variant:normal;font-weight:normal;font-stretch:normal;font-size:40px;line-height:1.25;font-family:'Free Avant Garde';-inkscape-font-specification:'Free Avant Garde';letter-spacing:0px;word-spacing:0px;fill:#000000;fill-opacity:1;stroke:none"
       inkscape:export-xdpi="100"
       inkscape:export-ydpi="100"
       inkscape:export-filename="/home/user01/fsugtcr.png"><flowRegion
         id="flowRegion4596-2-9-1-2"
         style="font-style:normal;font-variant:normal;font-weight:normal;font-stretch:normal;font-family:'Free Avant Garde';-inkscape-font-specification:'Free Avant Garde'"><rect
           id="rect4598-7-7-2-3"
           width="1418.75"
           height="943.75"
           x="6581.25"
           y="6153.7695"
           style="font-style:normal;font-variant:normal;font-weight:normal;font-stretch:normal;font-family:'Free Avant Garde';-inkscape-font-specification:'Free Avant Garde'" /></flowRegion><flowPara
         id="flowPara4610-0-2-7-7"
         style="font-style:normal;font-variant:normal;font-weight:normal;font-stretch:normal;font-family:'URW Gothic';-inkscape-font-specification:'URW Gothic'">THRISSUR</flowPara></flowRoot>    <path
       style="fill:#6699ff;stroke:none;stroke-width:0.11710858px;stroke-linecap:butt;stroke-linejoin:miter;stroke-opacity:1"
       d="M 156.93998,50.639537 H 88.347785 v 18.737301 h 54.539295 c 6.4088,-5.110102 12.4303,-13.507702 14.0529,-18.737301 z"
       id="path4325-35-9-9-2-5-0-5"
       inkscape:connector-curvature="0"
       sodipodi:nodetypes="ccccc"
       inkscape:export-xdpi="100"
       inkscape:export-ydpi="100"
       inkscape:export-filename="/home/user01/fsugtcr.png" />
    <path
       style="fill:#e46d43;stroke:none;stroke-width:0.11710858px;stroke-linecap:butt;stroke-linejoin:miter;stroke-opacity:1"
       d="M 130.81498,72.883136 H 69.918384 v 18.737201 h 46.843396 c 6.4088,-5.110001 12.4304,-13.507601 14.0532,-18.737201 z"
       id="path4325-3-6-2-7-9-8-9-9"
       inkscape:connector-curvature="0"
       sodipodi:nodetypes="ccccc"
       inkscape:export-xdpi="100"
       inkscape:export-ydpi="100"
       inkscape:export-filename="/home/user01/fsugtcr.png" />
    <path
       style="fill:#808080;stroke:none;stroke-width:0.11710858px;stroke-linecap:butt;stroke-linejoin:miter;stroke-opacity:1"
       d="m 85.011685,123.32654 c -19.4388,0 -19.4388,0 -19.4388,-50.085502 H 46.835583 c 0,68.808102 0,68.808102 38.176102,68.808102 z"
       id="path4325-5-1-2-3-3-9-3-2"
       inkscape:connector-curvature="0"
       sodipodi:nodetypes="ccccc"
       inkscape:export-xdpi="100"
       inkscape:export-ydpi="100"
       inkscape:export-filename="/home/user01/fsugtcr.png" />
    <path
       style="fill:#e9b96e;stroke:none;stroke-width:0.11710858px;stroke-linecap:butt;stroke-linejoin:miter;stroke-opacity:1"
       d="M 88.347785,151.43304 V 95.741638 h 18.737395 v 41.638202 c -5.1099,6.4089 -13.507596,12.4305 -18.737395,14.0532 z"
       id="path4325-3-6-7-3-6-1-0-6-2"
       inkscape:connector-curvature="0"
       sodipodi:nodetypes="ccccc"
       inkscape:export-xdpi="100"
       inkscape:export-ydpi="100"
       inkscape:export-filename="/home/user01/fsugtcr.png" />
    <path
       style="fill:#edd400;stroke:none;stroke-width:0.11710858px;stroke-linecap:butt;stroke-linejoin:miter;stroke-opacity:1"
       d="M 16.419484,50.639537 H 85.011685 V 69.376838 H 30.472684 C 24.063885,64.266736 18.042283,55.869136 16.419484,50.639537 Z"
       id="path4325-35-9-7-1-9-2-0-8"
       inkscape:connector-curvature="0"
       sodipodi:nodetypes="ccccc"
       inkscape:export-xdpi="100"
       inkscape:export-ydpi="100"
       inkscape:export-filename="/home/user01/fsugtcr.png" />
  </g>
</svg>
